particle_system WaterDrop
{
	material WaterDrop
	particle_width 1
	particle_height 1
	cull_each true
	quota 5000
	billboard_type point

	emitter  Ellipsoid 
	{
		height 1000
		width 1000
		inner_height 0.9
		inner_width 0.9
		emission_rate 500
		direction 1, -1, 0
		velocity 50
		
	}
}